Categories:Multimedia
License:GPL-3.0-only
Web Site:https://gitlab.com/axet/android-audio-recorder
Source Code:https://gitlab.com/axet/android-audio-recorder/tree/HEAD
Issue Tracker:https://gitlab.com/axet/android-audio-recorder/issues
LiberapayID:1370123

Auto Name:Audio Recorder
Summary:Record audio files
Description:
Audio recorder with custom recording folder, nice recording volume indicator,
recording notification, recording lock screen activity.
.

Repo Type:git
Repo:https://gitlab.com/axet/android-audio-recorder.git

Build:1.4.19,121
    disable=non-free
    commit=audiorecorder-1.4.19
    subdir=app
    gradle=yes

Build:1.4.26,128
    commit=audiorecorder-1.4.26
    subdir=app
    gradle=yes

Build:1.5.1,130
    commit=audiorecorder-1.5.1
    subdir=app
    gradle=yes

Build:1.5.2,131
    commit=audiorecorder-1.5.2
    subdir=app
    gradle=yes

Build:1.5.10,139
    commit=audiorecorder-1.5.10
    subdir=app
    gradle=yes

Build:1.5.11,140
    commit=audiorecorder-1.5.11
    subdir=app
    gradle=yes

Build:1.5.15,144
    commit=audiorecorder-1.5.15
    subdir=app
    gradle=yes

Build:1.5.17,147
    commit=audiorecorder-1.5.17
    subdir=app
    gradle=yes

Build:1.6.1,149
    commit=audiorecorder-1.6.1
    subdir=app
    gradle=yes

Build:1.7.1,151
    commit=audiorecorder-1.7.1
    subdir=app
    gradle=yes

Build:1.7.2,152
    commit=audiorecorder-1.7.2
    subdir=app
    gradle=yes

Build:1.7.4,154
    commit=audiorecorder-1.7.4
    subdir=app
    gradle=yes

Build:2.0.6,161
    commit=audiorecorder-2.0.6
    subdir=app
    gradle=yes

Build:2.0.7,162
    commit=audiorecorder-2.0.7
    subdir=app
    gradle=yes

Build:2.1.0,164
    commit=audiorecorder-2.1.0
    subdir=app
    gradle=yes

Build:3.0.4,169
    commit=audiorecorder-3.0.4
    subdir=app
    gradle=yes

Build:3.0.6,171
    commit=audiorecorder-3.0.6
    subdir=app
    gradle=yes

Build:3.0.9,174
    commit=audiorecorder-3.0.9
    subdir=app
    gradle=yes

Build:3.0.11,176
    commit=audiorecorder-3.0.11
    subdir=app
    gradle=yes

Build:3.0.14,179
    commit=audiorecorder-3.0.14
    subdir=app
    gradle=yes

Build:3.0.16,181
    commit=audiorecorder-3.0.16
    subdir=app
    gradle=yes

Build:3.0.24,189
    commit=audiorecorder-3.0.24
    subdir=app
    gradle=yes

Build:3.0.27,192
    commit=audiorecorder-3.0.27
    subdir=app
    gradle=yes

Build:3.0.28,193
    commit=audiorecorder-3.0.28
    subdir=app
    gradle=yes

Build:3.0.29,194
    commit=audiorecorder-3.0.29
    subdir=app
    gradle=yes

Build:3.0.31,196
    commit=audiorecorder-3.0.31
    subdir=app
    gradle=yes

Build:3.0.32,197
    commit=audiorecorder-3.0.32
    subdir=app
    gradle=yes

Build:3.0.34,199
    commit=audiorecorder-3.0.34
    subdir=app
    gradle=yes

Build:3.0.35,200
    commit=audiorecorder-3.0.35
    subdir=app
    gradle=yes

Build:3.0.37,202
    commit=audiorecorder-3.0.37
    subdir=app
    gradle=yes

Build:3.0.38,203
    commit=audiorecorder-3.0.38
    subdir=app
    gradle=yes

Build:3.0.40,206
    commit=audiorecorder-3.0.40
    subdir=app
    gradle=yes

Build:3.0.41,207
    commit=audiorecorder-3.0.41
    subdir=app
    gradle=universal

Build:3.0.42,208
    commit=audiorecorder-3.0.42
    subdir=app
    gradle=universal

Build:3.0.43,209
    commit=audiorecorder-3.0.43
    subdir=app
    gradle=universal

Build:3.0.47,213
    commit=audiorecorder-3.0.47
    subdir=app
    gradle=yes
    prebuild=sed -i -e '/variant.outputs.each/,/}$/d; /enable true/d' build.gradle

Build:3.0.51,217
    commit=audiorecorder-3.0.51
    subdir=app
    gradle=yes
    prebuild=sed -i -e '/variant.outputs.each/,/}$/d; /enable true/d' build.gradle

Build:3.0.53,219
    commit=audiorecorder-3.0.53
    subdir=app
    gradle=yes
    prebuild=sed -i -e '/variant.outputs.each/,/}$/d; /enable true/d' build.gradle

Build:3.0.54,220
    commit=audiorecorder-3.0.54
    subdir=app
    gradle=yes
    prebuild=sed -i -e '/variant.outputs.each/,/}$/d; /enable true/d' build.gradle

Build:3.0.55,221
    disable=old and failing
    commit=audiorecorder-3.0.55
    subdir=app
    gradle=yes
    prebuild=sed -i -e '/variant.outputs.each/,/}$/d; /enable true/d' build.gradle

Build:3.0.57,223
    commit=audiorecorder-3.0.57
    subdir=app
    gradle=yes
    prebuild=sed -i -e '/variant.outputs.each/,/}$/d; /enable true/d' build.gradle

Build:3.0.59,225
    commit=audiorecorder-3.0.59
    subdir=app
    gradle=yes
    prebuild=sed -i -e '/variant.outputs.each/,/}$/d; /enable true/d' build.gradle

Build:3.0.60,226
    commit=audiorecorder-3.0.60
    subdir=app
    gradle=yes
    prebuild=sed -i -e '/variant.outputs.each/,/}$/d; /enable true/d' build.gradle

Build:3.1.4,234
    commit=audiorecorder-3.1.4
    subdir=app
    gradle=yes
    prebuild=sed -i -e '/variant.outputs.each/,/}$/d; /enable true/d' build.gradle

Build:3.1.5,235
    commit=audiorecorder-3.1.5
    subdir=app
    gradle=yes
    prebuild=sed -i -e '/variant.outputs.each/,/}$/d; /enable true/d' build.gradle

Build:3.1.7,238
    commit=audiorecorder-3.1.7
    subdir=app
    gradle=yes
    prebuild=sed -i -e '/variant.outputs.each/,/}$/d; /enable true/d' build.gradle

Build:3.1.8,239
    commit=audiorecorder-3.1.8
    subdir=app
    gradle=yes
    prebuild=sed -i -e '/variant.outputs.each/,/}$/d; /enable true/d' build.gradle

Build:3.1.12,243
    commit=audiorecorder-3.1.12
    subdir=app
    gradle=yes
    prebuild=sed -i -e '/variant.outputs.each/,/}$/d; /enable true/d' build.gradle

Build:3.1.16,247
    commit=audiorecorder-3.1.16
    subdir=app
    gradle=yes
    prebuild=sed -i -e '/variant.outputs.each/,/}$/d; /enable true/d' build.gradle

Build:3.1.17,248
    commit=audiorecorder-3.1.17
    subdir=app
    gradle=yes
    prebuild=sed -i -e '/variant.outputs.each/,/}$/d; /enable true/d' build.gradle

Build:3.1.18,249
    commit=audiorecorder-3.1.18
    subdir=app
    gradle=yes
    prebuild=sed -i -e '/variant.outputs.each/,/}$/d; /enable true/d' build.gradle

Build:3.1.19,250
    commit=audiorecorder-3.1.19
    subdir=app
    gradle=yes
    prebuild=sed -i -e '/variant.outputs.each/,/}$/d; /enable true/d' build.gradle

Build:3.1.20,251
    commit=audiorecorder-3.1.20
    subdir=app
    gradle=yes
    prebuild=sed -i -e '/variant.outputs.each/,/}$/d; /enable true/d' build.gradle

Build:3.1.22,253
    commit=audiorecorder-3.1.22
    subdir=app
    gradle=yes
    prebuild=sed -i -e '/variant.outputs.each/,/}$/d; /enable true/d' build.gradle

Build:3.1.25,256
    commit=audiorecorder-3.1.25
    subdir=app
    gradle=yes
    prebuild=sed -i -e '/variant.outputs.each/,/}$/d; /enable true/d' build.gradle

Build:3.2.0,257
    commit=audiorecorder-3.2.0
    subdir=app
    gradle=yes
    prebuild=sed -i -e '/variant.outputs.each/,/}$/d; /enable true/d' build.gradle

Build:3.2.1,258
    commit=audiorecorder-3.2.1
    subdir=app
    gradle=yes
    prebuild=sed -i -e '/variant.outputs.each/,/}$/d; /enable true/d' build.gradle

Build:3.2.4,261
    commit=audiorecorder-3.2.4
    subdir=app
    gradle=yes
    prebuild=sed -i -e '/variant.outputs.each/,/}$/d; /enable true/d' build.gradle

Build:3.2.5,262
    commit=audiorecorder-3.2.5
    subdir=app
    gradle=yes
    prebuild=sed -i -e '/variant.outputs.each/,/}$/d; /enable true/d' build.gradle

Build:3.2.7,264
    commit=audiorecorder-3.2.7
    subdir=app
    gradle=yes
    prebuild=sed -i -e '/variant.outputs.each/,/}$/d; /enable true/d' build.gradle

Build:3.2.12,270
    commit=audiorecorder-3.2.12
    subdir=app
    gradle=yes
    prebuild=sed -i -e '/variant.outputs.each/,/}$/d; /enable true/d' build.gradle

Build:3.2.13,271
    commit=audiorecorder-3.2.13
    subdir=app
    gradle=yes
    prebuild=sed -i -e '/variant.outputs.each/,/}$/d; /enable true/d' build.gradle

Build:3.2.14,272
    commit=audiorecorder-3.2.14
    subdir=app
    gradle=yes
    prebuild=sed -i -e '/variant.outputs.each/,/}$/d; /enable true/d' build.gradle

Build:3.2.15,273
    commit=audiorecorder-3.2.15
    subdir=app
    gradle=yes
    prebuild=sed -i -e '/variant.outputs.each/,/}$/d; /enable true/d' build.gradle

Build:3.2.17,275
    commit=audiorecorder-3.2.17
    subdir=app
    gradle=yes
    prebuild=sed -i -e '/variant.outputs.each/,/}$/d; /enable true/d' build.gradle

Build:3.2.18,276
    commit=audiorecorder-3.2.18
    subdir=app
    gradle=yes
    prebuild=sed -i -e '/variant.outputs.each/,/}$/d; /enable true/d' build.gradle

Build:3.2.19,277
    commit=audiorecorder-3.2.19
    subdir=app
    gradle=yes
    prebuild=sed -i -e '/variant.outputs.each/,/}$/d; /enable true/d' build.gradle

Build:3.2.20,278
    commit=audiorecorder-3.2.20
    subdir=app
    gradle=yes
    prebuild=sed -i -e '/variant.outputs.each/,/}$/d; /enable true/d' build.gradle

Build:3.2.21,279
    commit=audiorecorder-3.2.21
    subdir=app
    gradle=yes
    prebuild=sed -i -e '/variant.outputs.each/,/}$/d; /enable true/d' build.gradle

Build:3.2.22,280
    commit=audiorecorder-3.2.22
    subdir=app
    gradle=yes
    prebuild=sed -i -e '/variant.outputs.each/,/}$/d; /enable true/d' build.gradle

Build:3.2.23,281
    commit=audiorecorder-3.2.23
    subdir=app
    gradle=yes
    prebuild=sed -i -e '/variant.outputs.each/,/}$/d; /enable true/d' build.gradle

Build:3.2.24,282
    commit=audiorecorder-3.2.24
    subdir=app
    gradle=yes
    prebuild=sed -i -e '/variant.outputs.each/,/}$/d; /enable true/d' build.gradle

Build:3.2.26,284
    commit=audiorecorder-3.2.26
    subdir=app
    gradle=yes
    prebuild=sed -i -e '/variant.outputs.each/,/}$/d; /enable true/d' build.gradle

Build:3.2.31,289
    commit=audiorecorder-3.2.31
    subdir=app
    gradle=yes
    prebuild=sed -i -e '/variant.outputs.each/,/}$/d; /enable true/d' build.gradle

Build:3.2.34,292
    commit=audiorecorder-3.2.34
    subdir=app
    gradle=yes
    prebuild=sed -i -e '/variant.outputs.each/,/}$/d; /enable true/d' build.gradle

Build:3.2.35,293
    commit=audiorecorder-3.2.35
    subdir=app
    gradle=yes
    prebuild=sed -i -e '/variant.outputs.each/,/}$/d; /enable true/d' build.gradle

Build:3.2.36,294
    commit=audiorecorder-3.2.36
    subdir=app
    gradle=yes
    prebuild=sed -i -e '/variant.outputs.each/,/}$/d; /enable true/d' build.gradle

Build:3.2.41,299
    commit=audiorecorder-3.2.41
    subdir=app
    gradle=yes
    prebuild=sed -i -e '/variant.outputs.each/,/}$/d; /enable true/d' build.gradle

Build:3.2.43,301
    commit=audiorecorder-3.2.43
    subdir=app
    gradle=yes
    prebuild=sed -i -e '/variant.outputs.each/,/}$/d; /enable true/d' build.gradle

Build:3.2.44,302
    commit=audiorecorder-3.2.44
    subdir=app
    gradle=yes
    prebuild=sed -i -e '/variant.outputs.each/,/}$/d; /enable true/d' build.gradle

Build:3.2.45,303
    commit=audiorecorder-3.2.45
    subdir=app
    gradle=yes
    prebuild=sed -i -e '/variant.outputs.each/,/}$/d; /enable true/d' build.gradle

Build:3.2.47,305
    commit=audiorecorder-3.2.47
    subdir=app
    gradle=yes
    prebuild=sed -i -e '/variant.outputs.each/,/}$/d; /enable true/d' build.gradle

Build:3.2.48,306
    commit=audiorecorder-3.2.48
    subdir=app
    gradle=yes
    prebuild=sed -i -e '/variant.outputs.each/,/}$/d; /enable true/d' build.gradle

Build:3.2.50,308
    commit=audiorecorder-3.2.50
    subdir=app
    gradle=yes
    prebuild=sed -i -e '/variant.outputs.each/,/}$/d; /enable true/d' build.gradle

Build:3.2.52,310
    commit=audiorecorder-3.2.52
    subdir=app
    gradle=yes
    prebuild=sed -i -e '/variant.outputs.each/,/}$/d; /enable true/d' build.gradle

Build:3.2.53,311
    commit=audiorecorder-3.2.53
    subdir=app
    gradle=yes
    prebuild=sed -i -e '/variant.outputs.each/,/}$/d; /enable true/d' build.gradle

Build:3.2.54,312
    commit=audiorecorder-3.2.54
    subdir=app
    gradle=yes
    prebuild=sed -i -e '/variant.outputs.each/,/}$/d; /enable true/d' build.gradle

Build:3.2.56,314
    commit=audiorecorder-3.2.56
    subdir=app
    gradle=yes
    prebuild=sed -i -e '/variant.outputs.each/,/}$/d; /enable true/d' build.gradle

Auto Update Mode:Version audiorecorder-%v
Update Check Mode:Tags
Current Version:3.2.56
Current Version Code:314
